Replace Part C? Cap_100nF_0603 in C:\Users\lukas\Documents\mokslai\4 kursas\Semestro projektas\GPS_Tracker\Main.SchDoc with Cap_100nF_0603 from Sch_Library.SchLib
Replace Part C? Cap_4_7uF_0603_1 in C:\Users\lukas\Documents\mokslai\4 kursas\Semestro projektas\GPS_Tracker\Main.SchDoc with Cap_4_7uF_0603_1 from Sch_Library.SchLib
Replace Part C? Cap_100nF_0603 in C:\Users\lukas\Documents\mokslai\4 kursas\Semestro projektas\GPS_Tracker\Main.SchDoc with Cap_100nF_0603 from Sch_Library.SchLib
Replace Part C? Cap_100nF_0603 in C:\Users\lukas\Documents\mokslai\4 kursas\Semestro projektas\GPS_Tracker\Main.SchDoc with Cap_100nF_0603 from Sch_Library.SchLib
Update Managed Component U? From CMP-12105-000112-1[STM32G070CBT6] To CMP-12105-000112-1[STM32G070CBT6] in Main.SchDoc
