Replace Part C1 Cap_100nF_0603 in C:\Users\lukas\Documents\Gitlab\gps_tracker\MCU.SchDoc with Cap_100nF_0603 from Sch_Library.SchLib
Replace Part C2 Cap_100nF_0603 in C:\Users\lukas\Documents\Gitlab\gps_tracker\MCU.SchDoc with Cap_100nF_0603 from Sch_Library.SchLib
Replace Part C3 Cap_100nF_0603 in C:\Users\lukas\Documents\Gitlab\gps_tracker\MCU.SchDoc with Cap_100nF_0603 from Sch_Library.SchLib
Replace Part C5 Cap_100nF_0603 in C:\Users\lukas\Documents\Gitlab\gps_tracker\MCU.SchDoc with Cap_100nF_0603 from Sch_Library.SchLib
Replace Part C6 Cap_4pF_0603 in C:\Users\lukas\Documents\Gitlab\gps_tracker\MCU.SchDoc with Cap_4pF_0603 from Sch_Library.SchLib
Replace Part C7 Cap_4pF_0603 in C:\Users\lukas\Documents\Gitlab\gps_tracker\MCU.SchDoc with Cap_4pF_0603 from Sch_Library.SchLib
Replace Part J1 8_pin_header in C:\Users\lukas\Documents\Gitlab\gps_tracker\MCU.SchDoc with 8_pin_header from Sch_Library.SchLib
Replace Part R1 Res_10k_0805 in C:\Users\lukas\Documents\Gitlab\gps_tracker\MCU.SchDoc with Res_10k_0805 from Sch_Library.SchLib
Replace Part R2 Res_0R_0805 in C:\Users\lukas\Documents\Gitlab\gps_tracker\MCU.SchDoc with Res_0R_0805 from Sch_Library.SchLib
Replace Part SW1 Switch in C:\Users\lukas\Documents\Gitlab\gps_tracker\MCU.SchDoc with Switch from Sch_Library.SchLib
Update Managed Component U1 From CMP-12105-000112-1[STM32G070CBT6] To CMP-12105-000112-1[STM32G070CBT6] in MCU.SchDoc
Update Managed Component Y1 From CMP-200220-000002-1[NX3225SA-25.000M-STD-CRS-2] To CMP-200220-000002-1[NX3225SA-25.000M-STD-CRS-2] in MCU.SchDoc
